04 — Hot/Cold × p16 Overlap Analysis
…
  ggsave(file.path(FIGURES, "cdkn2a_ifng_corr_by_type.png"),
         plot = p2, width = 8, height = 10, dpi = 150)
  p2
}

## # A tibble: 32 × 6
##    tumor_type                          rho     pval     n     padj sig  
##    <chr>                             <dbl>    <dbl> <int>    <dbl> <lgl>
##  1 kidney chromophobe                0.444 1.86e- 4    66 7.42e- 4 TRUE 
##  2 thyroid carcinoma                 0.405 2.55e-21   505 8.15e-20 TRUE 
##  3 ovarian serous cystadenocarcinoma 0.368 2.16e-11   311 2.30e-10 TRUE 
##  4 cervical & endocervical cancer    0.240 2.20e- 5   305 1.21e- 4 TRUE 
##  5 breast invasive carcinoma         0.222 3.98e-14  1137 6.37e-13 TRUE 
##  6 testicular germ cell tumor        0.219 7.22e- 3   150 1.93e- 2 TRUE 
##  7 mesothelioma                      0.216 4.46e- 2    87 8.40e- 2 FALSE
##  8 bladder urothelial carcinoma      0.210 1.59e- 5   414 1.21e- 4 TRUE 
##  9 pheochromocytoma & paraganglioma  0.183 1.42e- 2   179 3.42e- 2 TRUE 
## 10 lung adenocarcinoma               0.182 2.27e- 5   538 1.21e- 4 TRUE 
## # ℹ 22 more rows
…
