05 — Survival Analysis
…
## Warning: There was 1 warning in `summarise()`.
## ℹ In argument: `lr_pval = { ... }`.
## ℹ In group 1: `tumor_type = "adrenocortical cancer"`.
## Caused by warning:
## ! `cur_data()` was deprecated in dplyr 1.1.0.
## ℹ Please use `pick()` instead.

print(per_type_lr)

## # A tibble: 30 × 5
##    tumor_type                        n_hot n_cold   lr_pval     padj
##    <chr>                             <int>  <int>     <dbl>    <dbl>
##  1 kidney papillary cell carcinoma      41    248 0.0000288 0.000865
##  2 sarcoma                             105    154 0.00349   0.0523  
##  3 thymoma                              57     62 0.0110    0.110   
##  4 brain lower grade glioma              9    505 0.0176    0.114   
##  5 uveal melanoma                       10     70 0.0189    0.114   
##  6 esophageal carcinoma                103     81 0.0315    0.157   
##  7 adrenocortical cancer                 5     74 0.0706    0.260   
##  8 skin cutaneous melanoma              52     51 0.0707    0.260   
##  9 kidney clear cell carcinoma         452     93 0.0855    0.260   
## 10 ovarian serous cystadenocarcinoma   192    118 0.0916    0.260   
## # ℹ 20 more rows
…
